nome_arq|periodicidade|destino|database|tabela|incremtal_overwrite
file.gcp_growth_plan_cn|d|s3://natura-datalake-dev/raw/gcp_growth_plan_cn/|raw|gcp_growth_plan_cn|O
file.gcp_indexes_codes|d|s3://natura-datalake-dev/raw/gcp_indexes_codes/|raw|gcp_indexes_codes|O
file.gcp_consultant_index|d|s3://natura-datalake-dev/raw/gcp_consultant_index/|raw|gcp_consultant_index|O
file.gcp_structure_index|d|s3://natura-datalake-dev/raw/gcp_structure_index/|raw|gcp_structure_index|O
file.bematec_produto|d|s3://natura-datalake-dev/raw/bematec_produto/|raw|bematec_produto|O
file.bematec_preco_produto|d|s3://natura-datalake-dev/raw/bematec_preco_produto/|raw|bematec_preco_produto|O
file.bematec_nota_fiscal|d|s3://natura-datalake-dev/raw/bematec_nota_fiscal/|raw|bematec_nota_fiscal|O
file.bematec_loja|d|s3://natura-datalake-dev/raw/bematec_loja/|raw|bematec_loja|O
file.bematec_cupom_cliente|d|s3://natura-datalake-dev/raw/bematec_cliente/|raw|bematec_cliente|O
file.bematec_cupom_fiscal|d|s3://natura-datalake-dev/raw/bematec_cupom_fiscal/|raw|bematec_cupom_fiscal|O
file.bematec_inventario|d|s3://natura-datalake-dev/raw/bematec_inventario/|raw|bematec_inventario|O
file.bematec_movimento_caixa|d|s3://natura-datalake-dev/raw/bematec_movimento_caixa/|raw|bematec_movimento_caixa|O
file.dre_planvd|d|s3://natura-datalake-dev/raw/dre_planvd/|raw|dre_planvd|O
file.dre_planejamento_ciclos|d|s3://natura-datalake-dev/raw/dre_planejamento_ciclos/|raw|dre_planejamento_ciclos|O
siscad.t_ps_zoneamento_entrega|d|s3://natura-datalake-dev/raw/t_ps_zoneamento_entrega/|raw|t_ps_zoneamento_entrega|O
siscad.t_ciclo_operacional|d|s3://natura-datalake-dev/raw/t_ciclo_operacional/|raw|t_ciclo_operacional|O
sisestat.t_consultora|d|s3://natura-datalake-dev/raw/t_consultora/|raw|t_consultora|O
sisdmpm.t_mbpresenc_consolidado|d|s3://natura-datalake-dev/raw/t_mbpresenc_consolidado/|raw|t_mbpresenc_consolidado|O
sisdmpm.t_ind_f_pl_vendas_cn|d|s3://natura-datalake-dev/raw/t_ind_f_pl_vendas_cn/|raw|t_ind_f_pl_vendas_cn|O
sisdmpm.t_dw_f_titulo|d|s3://natura-datalake-dev/raw/t_dw_f_titulo/|raw|t_dw_f_titulo|O
siscad.t_estrutura_comercial|d|s3://natura-datalake-dev/raw/t_estrutura_comercial/|raw|t_estrutura_comercial|O
siscad.t_pessoa_fisica|d|s3://natura-datalake-dev/raw/t_pessoa_fisica/|raw|t_pessoa_fisica|O
siscad.t_pessoa|d|s3://natura-datalake-dev/raw/t_pessoa/|raw|t_pessoa|O
siscad.t_endereco_pessoa|d|s3://natura-datalake-dev/raw/t_endereco_pessoa/|raw|t_endereco_pessoa|O
sisestat.t_sr_controle_tempo_cadastro|d|s3://natura-datalake-dev/raw/t_sr_controle_tempo_cadastro/|raw|t_sr_controle_tempo_cadastro|O
sisestat.t_ec_pessoa_perfil_ciclo|d|s3://natura-datalake-dev/raw/t_ec_pessoa_perfil_ciclo/|raw|t_ec_pessoa_perfil_ciclo|O
sisestat.t_sr_tempo_total_cn|d|s3://natura-datalake-dev/raw/t_sr_tempo_total_cn/|raw|t_sr_tempo_total_cn|O
sisestat.t_titulo|d|s3://natura-datalake-dev/raw/t_titulo/|raw|t_titulo|O
sisestat.t_gc_hist_mov_cn|d|s3://natura-datalake-dev/raw/t_gc_hist_mov_cn/|raw|t_gc_hist_mov_cn|O
sisestat.t_ec_pedido|d|s3://natura-datalake-dev/raw/t_ec_pedido/|raw|t_ec_pedido|O
sisestat.consultora_niveis|d|s3://natura-datalake-dev/raw/consultora_niveis/|raw|consultora_niveis|O
sisestat.m_ciclo_operacional_cad|d|s3://natura-datalake-dev/raw/m_ciclo_operacional_cad/|raw|m_ciclo_operacional_cad|O
sisestat.t_cd_motivo_cessacao_cn|d|s3://natura-datalake-dev/raw/t_cd_motivo_cessacao_cn/|raw|t_cd_motivo_cessacao_cn|O
sisestat.t_gc_solicitacao_mov_cn|d|s3://natura-datalake-dev/raw/t_gc_solicitacao_mov_cn/|raw|t_gc_solicitacao_mov_cn|O
sisbio.t_operacao|d|s3://natura-datalake-dev/raw/t_operacao/|raw|t_operacao|O
siscpt.forma_pagamento_captacao|d|s3://natura-datalake-dev/raw/forma_pagamento_captacao/|raw|forma_pagamento_captacao|O
siscpt.estrutura|d|s3://natura-datalake-dev/raw/estrutura/|raw|estrutura|O
siscpt.t_alternativa_oferta_produto|d|s3://natura-datalake-dev/raw/t_alternativa_oferta_produto/|raw|t_alternativa_oferta_produto|O
sisef.t_produto|d|s3://natura-datalake-dev/raw/t_produto/|raw|t_produto|O
sisef.t_agrupamento_produto|d|s3://natura-datalake-dev/raw/t_agrupamento_produto/|raw|t_agrupamento_produto|O
sisef.t_estrutura_material|d|s3://natura-datalake-dev/raw/t_estrutura_material/|raw|t_estrutura_material|O
sisef.t_area_negocio|d|s3://natura-datalake-dev/raw/t_area_negocio/|raw|t_area_negocio|O
sisgcp.t_produto_venda|d|s3://natura-datalake-dev/raw/t_produto_venda/|raw|t_produto_venda|O
sisprm.promocao|d|s3://natura-datalake-dev/raw/promocao/|raw|promocao|O
siscpt.item_pedido_ncn|d|s3://natura-datalake-dev/raw/item_pedido_ncn/|raw|item_pedido_ncn|O
siscpt.item_pedido|d|s3://natura-datalake-dev/raw/item_pedido/|raw|item_pedido|O
siscpt.pedido|d|s3://natura-datalake-dev/raw/pedido/|raw|pedido|O
siscpt.t_alternativas_ofertadas|d|s3://natura-datalake-dev/raw/t_alternativas_ofertadas/|raw|t_alternativas_ofertadas|O
sisprm.lista_produto_beneficio|d|s3://natura-datalake-dev/raw/lista_produto_beneficio/|raw|lista_produto_beneficio|O
sisprm.mecanica|d|s3://natura-datalake-dev/raw/mecanica/|raw|mecanica|O
sisprm.dominio|d|s3://natura-datalake-dev/raw/dominio/|raw|dominio|O
sisprm.lista_prod_benef_substituto|d|s3://natura-datalake-dev/raw/lista_prod_benef_substituto/|raw|lista_prod_benef_substituto|O
sisprm.grupo_dominio|d|s3://natura-datalake-dev/raw/grupo_dominio/|raw|grupo_dominio|O
sisprm.grupo_requisito|d|s3://natura-datalake-dev/raw/grupo_requisito/|raw|grupo_requisito|O
sisbio.t_item_pedido|d|s3://natura-datalake-dev/raw/t_item_pedido/|raw|t_item_pedido|O
sisbio.t_pedido|d|s3://natura-datalake-dev/raw/t_pedido/|raw|t_pedido|O
sisbio.t_pedido_rel_atg_biosphera|d|s3://natura-datalake-dev/raw/t_pedido_rel_atg_biosphera/|raw|t_pedido_rel_atg_biosphera|O
sisbio.t_split_valor_item|d|s3://natura-datalake-dev/raw/t_split_valor_item/|raw|t_split_valor_item|O
sisbio.t_pessoa_papel|d|s3://natura-datalake-dev/raw/t_pessoa_papel/|raw|t_pessoa_papel|O
sisbio.t_cadastro_pessoa|d|s3://natura-datalake-dev/raw/t_cadastro_pessoa/|raw|t_cadastro_pessoa|O
siscpt.consultora_captacao|d|s3://natura-datalake-dev/raw/consultora_captacao/|raw|consultora_captacao|O
siscpt.parametro_captacao|d|s3://natura-datalake-dev/raw/parametro_captacao/|raw|parametro_captacao|O
siscpt.venda_garantida|d|s3://natura-datalake-dev/raw/venda_garantida/|raw|venda_garantida|O
siscpt.venda_suspensa|d|s3://natura-datalake-dev/raw/venda_suspensa/|raw|venda_suspensa|O
siscpt.motivo_venda_suspensa|d|s3://natura-datalake-dev/raw/motivo_venda_suspensa/|raw|motivo_venda_suspensa|O
siscpt.t_split_pedido|d|s3://natura-datalake-dev/raw/t_split_pedido/|raw|t_split_pedido|O
siscpt.estoque_material|d|s3://natura-datalake-dev/raw/estoque_material/|raw|estoque_material|O
atgdb_natura_core.dcspp_amount_info|d|s3://natura-datalake-dev/raw/dcspp_amount_info/|raw|dcspp_amount_info|O
atgdb_natura_core.dcspp_order|d|s3://natura-datalake-dev/raw/dcspp_order/|raw|dcspp_order|O
atgdb_natura_core.dcspp_pay_group|d|s3://natura-datalake-dev/raw/dcspp_pay_group/|raw|dcspp_pay_group|O
atgdb_natura_core.nt_cn_user|d|s3://natura-datalake-dev/raw/nt_cn_user/|raw|nt_cn_user|O
atgdb_natura_core.nt_ext_user|d|s3://natura-datalake-dev/raw/nt_ext_user/|raw|nt_ext_user|O
atgdb_natura_core.nt_order|d|s3://natura-datalake-dev/raw/nt_order/|raw|nt_order|O
sisdmpm.t_dw_d_estrut_responsabilidade|d|s3://natura-datalake-dev/raw/t_dw_d_estrut_responsabilidade/|raw|t_dw_d_estrut_responsabilidade|O
sisdmpm.t_dw_d_produto|d|s3://natura-datalake-dev/raw/t_dw_d_produto/|raw|t_dw_d_produto|O
sisdmpm.sas_lc|d|s3://natura-datalake-dev/raw/sas_lc/|raw|sas_lc|O
sisdmpm.t_dw_d_pessoa|d|s3://natura-datalake-dev/raw/t_dw_d_pessoa/|raw|t_dw_d_pessoa|O
sisdmpm.t_dw_f_item_pedido|d|s3://natura-datalake-dev/raw/t_dw_f_item_pedido/|raw|t_dw_f_item_pedido|O
sisdmpm.t_dw_f_pedido|d|s3://natura-datalake-dev/raw/t_dw_f_pedido/|raw|t_dw_f_pedido|O
sisdmpm.t_dw_f_perfil_consultora|d|s3://natura-datalake-dev/raw/t_dw_f_perfil_consultora/|raw|t_dw_f_perfil_consultora|O
sisdmpm.t_ec_item_pedido|d|s3://natura-datalake-dev/raw/t_ec_item_pedido/|raw|t_ec_item_pedido|O
sisdmpm.t_prj_intgr_f_dre|d|s3://natura-datalake-dev/raw/t_prj_intgr_f_dre/|raw|t_prj_intgr_f_dre|O
sisdmpm.t_sr_controle_tempo_cadastro|d|s3://natura-datalake-dev/raw/t_sr_controle_tempo_cadastro/|raw|t_sr_controle_tempo_cadastro|O
sisdmpm.t_eau_f_movimentacao|d|s3://natura-datalake-dev/raw/t_eau_f_movimentacao/|raw|t_eau_f_movimentacao|O
sisdmpm.t_ec_pedido|d|s3://natura-datalake-dev/raw/t_ec_pedido/|raw|t_ec_pedido|O
sisdmpm.t_ec_pessoa_perfil_ciclo|d|s3://natura-datalake-dev/raw/t_ec_pessoa_perfil_ciclo/|raw|t_ec_pessoa_perfil_ciclo|O
atgdb_natura_core.dcspp_item|d|s3://natura-datalake-dev/raw/dcspp_item/|raw|dcspp_item|O
atgdb_natura_core.dcspp_order_pg|d|s3://natura-datalake-dev/raw/dcspp_order_pg/|raw|dcspp_order_pg|O
atgdb_natura_core.dcspp_order_price|d|s3://natura-datalake-dev/raw/dcspp_order_price/|raw|dcspp_order_price|O
atgdb_natura_core.dcspp_ship_addr|d|s3://natura-datalake-dev/raw/dcspp_ship_addr/|raw|dcspp_ship_addr|O
atgdb_natura_core.dcspp_ship_group|d|s3://natura-datalake-dev/raw/dcspp_ship_group/|raw|dcspp_ship_group|O
atgdb_natura_core.nt_ship_group|d|s3://natura-datalake-dev/raw/nt_ship_group/|raw|nt_ship_group|O
atgdb_natura_core.oe_order|d|s3://natura-datalake-dev/raw/oe_order/|raw|oe_order|O
atgdb_natura_core.oe_pay_group|d|s3://natura-datalake-dev/raw/oe_pay_group/|raw|oe_pay_group|O
atgdb_natura_pub.dcs_sku|d|s3://natura-datalake-dev/raw/dcs_sku/|raw|dcs_sku|O
file.ar_abrangencia|d|s3://natura-datalake-dev/raw/ar_abrangencia/|raw|ar_abrangencia|O
file.ar_centro_estoque|d|s3://natura-datalake-dev/raw/ar_centro_estoque/|raw|ar_centro_estoque|O
file.ar_ciclo_operacional|d|s3://natura-datalake-dev/raw/ar_ciclo_operacional/|raw|ar_ciclo_operacional|O
file.ar_classificacao_produto|d|s3://natura-datalake-dev/raw/ar_classificacao_produto/|raw|ar_classificacao_produto|O
file.ar_dominio|d|s3://natura-datalake-dev/raw/ar_dominio/|raw|ar_dominio|O
file.ar_estrutura_comercial|d|s3://natura-datalake-dev/raw/ar_estrutura_comercial/|raw|ar_estrutura_comercial|O
file.ar_estrutura_geo|d|s3://natura-datalake-dev/raw/ar_estrutura_geo/|raw|ar_estrutura_geo|O
file.ar_estrutura_produto|d|s3://natura-datalake-dev/raw/ar_estrutura_produto/|raw|ar_estrutura_produto|O
file.ar_fatura|d|s3://natura-datalake-dev/raw/ar_fatura/|raw|ar_fatura|O
file.ar_indicadores_cno|d|s3://natura-datalake-dev/raw/ar_indicadores_cno/|raw|ar_indicadores_cno|O
file.ar_indicadores_cno_fechamento|d|s3://natura-datalake-dev/raw/ar_indicadores_cno_fechamento/|raw|ar_indicadores_cno_fechamento|O
file.ar_item_pedido|d|s3://natura-datalake-dev/raw/ar_item_pedido/|raw|ar_item_pedido|O
file.ar_notificacao_cn|d|s3://natura-datalake-dev/raw/ar_notificacao_cn/|raw|ar_notificacao_cn|O
file.ar_ordenes_de_pago_cno|d|s3://natura-datalake-dev/raw/ar_ordenes_de_pago_cno/|raw|ar_ordenes_de_pago_cno|O
file.ar_pedido|d|s3://natura-datalake-dev/raw/ar_pedido/|raw|ar_pedido|O
file.ar_perfil_cn|d|s3://natura-datalake-dev/raw/ar_perfil_cn/|raw|ar_perfil_cn|O
file.ar_perfil_cn_fechamento|d|s3://natura-datalake-dev/raw/ar_perfil_cn_fechamento/|raw|ar_perfil_cn_fechamento|O
file.ar_pessoa|d|s3://natura-datalake-dev/raw/ar_pessoa/|raw|ar_pessoa|O
file.ar_pessoa_comercial|d|s3://natura-datalake-dev/raw/ar_pessoa_comercial/|raw|ar_pessoa_comercial|O
file.ar_produto|d|s3://natura-datalake-dev/raw/ar_produto/|raw|ar_produto|O
file.ar_produto_estrutura|d|s3://natura-datalake-dev/raw/ar_produto_estrutura/|raw|ar_produto_estrutura|O
file.ar_situacao_atendimento_sac|d|s3://natura-datalake-dev/raw/ar_situacao_atendimento_sac/|raw|ar_situacao_atendimento_sac|O
file.ar_subciclo_operacional|d|s3://natura-datalake-dev/raw/ar_subciclo_operacional/|raw|ar_subciclo_operacional|O
file.ar_tipo_atendimento_sac|d|s3://natura-datalake-dev/raw/ar_tipo_atendimento_sac/|raw|ar_tipo_atendimento_sac|O
file.ar_transportadora|d|s3://natura-datalake-dev/raw/ar_transportadora/|raw|ar_transportadora|O
file.ch_abrangencia|d|s3://natura-datalake-dev/raw/ch_abrangencia/|raw|ch_abrangencia|O
file.ch_centro_estoque|d|s3://natura-datalake-dev/raw/ch_centro_estoque/|raw|ch_centro_estoque|O
file.ch_ciclo_operacional|d|s3://natura-datalake-dev/raw/ch_ciclo_operacional/|raw|ch_ciclo_operacional|O
file.ch_classificacao_produto|d|s3://natura-datalake-dev/raw/ch_classificacao_produto/|raw|ch_classificacao_produto|O
file.ch_dominio|d|s3://natura-datalake-dev/raw/ch_dominio/|raw|ch_dominio|O
file.ch_estrutura_comercial|d|s3://natura-datalake-dev/raw/ch_estrutura_comercial/|raw|ch_estrutura_comercial|O
file.ch_estrutura_geo|d|s3://natura-datalake-dev/raw/ch_estrutura_geo/|raw|ch_estrutura_geo|O
file.ch_estrutura_produto|d|s3://natura-datalake-dev/raw/ch_estrutura_produto/|raw|ch_estrutura_produto|O
file.ch_fatura|d|s3://natura-datalake-dev/raw/ch_fatura/|raw|ch_fatura|O
file.ch_indicadores_cno|d|s3://natura-datalake-dev/raw/ch_indicadores_cno/|raw|ch_indicadores_cno|O
file.ch_indicadores_cno_fechamento|d|s3://natura-datalake-dev/raw/ch_indicadores_cno_fechamento/|raw|ch_indicadores_cno_fechamento|O
file.ch_item_pedido|d|s3://natura-datalake-dev/raw/ch_item_pedido/|raw|ch_item_pedido|O
file.ch_notificacao_cn|d|s3://natura-datalake-dev/raw/ch_notificacao_cn/|raw|ch_notificacao_cn|O
file.ch_ordenes_de_pago_cno|d|s3://natura-datalake-dev/raw/ch_ordenes_de_pago_cno/|raw|ch_ordenes_de_pago_cno|O
file.ch_pedido|d|s3://natura-datalake-dev/raw/ch_pedido/|raw|ch_pedido|O
file.ch_perfiles_segmentacion|d|s3://natura-datalake-dev/raw/ch_perfiles_segmentacion/|raw|ch_perfiles_segmentacion|O
file.ch_perfil_cn|d|s3://natura-datalake-dev/raw/ch_perfil_cn/|raw|ch_perfil_cn|O
file.ch_perfil_cn_fechamento|d|s3://natura-datalake-dev/raw/ch_perfil_cn_fechamento/|raw|ch_perfil_cn_fechamento|O
file.ch_pessoa|d|s3://natura-datalake-dev/raw/ch_pessoa/|raw|ch_pessoa|O
file.ch_pessoa_comercial|d|s3://natura-datalake-dev/raw/ch_pessoa_comercial/|raw|ch_pessoa_comercial|O
file.ch_produto|d|s3://natura-datalake-dev/raw/ch_produto/|raw|ch_produto|O
file.ch_produto_estrutura|d|s3://natura-datalake-dev/raw/ch_produto_estrutura/|raw|ch_produto_estrutura|O
file.ch_situacao_atendimento_sac|d|s3://natura-datalake-dev/raw/ch_situacao_atendimento_sac/|raw|ch_situacao_atendimento_sac|O
file.ch_subciclo_operacional|d|s3://natura-datalake-dev/raw/ch_subciclo_operacional/|raw|ch_subciclo_operacional|O
file.ch_tipo_atendimento_sac|d|s3://natura-datalake-dev/raw/ch_tipo_atendimento_sac/|raw|ch_tipo_atendimento_sac|O
file.ch_transportadora|d|s3://natura-datalake-dev/raw/ch_transportadora/|raw|ch_transportadora|O
file.co_abrangencia|d|s3://natura-datalake-dev/raw/co_abrangencia/|raw|co_abrangencia|O
file.co_centro_estoque|d|s3://natura-datalake-dev/raw/co_centro_estoque/|raw|co_centro_estoque|O
file.co_ciclo_operacional|d|s3://natura-datalake-dev/raw/co_ciclo_operacional/|raw|co_ciclo_operacional|O
file.co_classificacao_produto|d|s3://natura-datalake-dev/raw/co_classificacao_produto/|raw|co_classificacao_produto|O
file.co_dominio|d|s3://natura-datalake-dev/raw/co_dominio/|raw|co_dominio|O
file.co_estrutura_comercial|d|s3://natura-datalake-dev/raw/co_estrutura_comercial/|raw|co_estrutura_comercial|O
file.co_estrutura_geo|d|s3://natura-datalake-dev/raw/co_estrutura_geo/|raw|co_estrutura_geo|O
file.co_estrutura_produto|d|s3://natura-datalake-dev/raw/co_estrutura_produto/|raw|co_estrutura_produto|O
file.co_fatura|d|s3://natura-datalake-dev/raw/co_fatura/|raw|co_fatura|O
file.co_indicadores_cno|d|s3://natura-datalake-dev/raw/co_indicadores_cno/|raw|co_indicadores_cno|O
file.co_indicadores_cno_fechamento|d|s3://natura-datalake-dev/raw/co_indicadores_cno_fechamento/|raw|co_indicadores_cno_fechamento|O
file.co_item_pedido|d|s3://natura-datalake-dev/raw/co_item_pedido/|raw|co_item_pedido|O
file.co_notificacao_cn|d|s3://natura-datalake-dev/raw/co_notificacao_cn/|raw|co_notificacao_cn|O
file.co_ordenes_de_pago_cno|d|s3://natura-datalake-dev/raw/co_ordenes_de_pago_cno/|raw|co_ordenes_de_pago_cno|O
file.co_pedido|d|s3://natura-datalake-dev/raw/co_pedido/|raw|co_pedido|O
file.co_perfil_cn|d|s3://natura-datalake-dev/raw/co_perfil_cn/|raw|co_perfil_cn|O
file.co_perfil_cn_fechamento|d|s3://natura-datalake-dev/raw/co_perfil_cn_fechamento/|raw|co_perfil_cn_fechamento|O
file.co_pessoa|d|s3://natura-datalake-dev/raw/co_pessoa/|raw|co_pessoa|O
file.co_pessoa_comercial|d|s3://natura-datalake-dev/raw/co_pessoa_comercial/|raw|co_pessoa_comercial|O
file.co_produto|d|s3://natura-datalake-dev/raw/co_produto/|raw|co_produto|O
file.co_produto_estrutura|d|s3://natura-datalake-dev/raw/co_produto_estrutura/|raw|co_produto_estrutura|O
file.co_situacao_atendimento_sac|d|s3://natura-datalake-dev/raw/co_situacao_atendimento_sac/|raw|co_situacao_atendimento_sac|O
file.co_subciclo_operacional|d|s3://natura-datalake-dev/raw/co_subciclo_operacional/|raw|co_subciclo_operacional|O
file.co_tipo_atendimento_sac|d|s3://natura-datalake-dev/raw/co_tipo_atendimento_sac/|raw|co_tipo_atendimento_sac|O
file.co_transportadora|d|s3://natura-datalake-dev/raw/co_transportadora/|raw|co_transportadora|O
file.mx_abrangencia|d|s3://natura-datalake-dev/raw/mx_abrangencia/|raw|mx_abrangencia|O
file.mx_ciclo_operacional|d|s3://natura-datalake-dev/raw/mx_ciclo_operacional/|raw|mx_ciclo_operacional|O
file.mx_classificacao_produto|d|s3://natura-datalake-dev/raw/mx_classificacao_produto/|raw|mx_classificacao_produto|O
file.mx_dominio|d|s3://natura-datalake-dev/raw/mx_dominio/|raw|mx_dominio|O
file.mx_estrutura_comercial|d|s3://natura-datalake-dev/raw/mx_estrutura_comercial/|raw|mx_estrutura_comercial|O
file.mx_estrutura_geo|d|s3://natura-datalake-dev/raw/mx_estrutura_geo/|raw|mx_estrutura_geo|O
file.mx_estrutura_produto|d|s3://natura-datalake-dev/raw/mx_estrutura_produto/|raw|mx_estrutura_produto|O
file.mx_fatura|d|s3://natura-datalake-dev/raw/mx_fatura/|raw|mx_fatura|O
file.mx_item_pedido|d|s3://natura-datalake-dev/raw/mx_item_pedido/|raw|mx_item_pedido|O
file.mx_notificacao_cn|d|s3://natura-datalake-dev/raw/mx_notificacao_cn/|raw|mx_notificacao_cn|O
file.mx_pedido|d|s3://natura-datalake-dev/raw/mx_pedido/|raw|mx_pedido|O
file.mx_perfil_cn|d|s3://natura-datalake-dev/raw/mx_perfil_cn/|raw|mx_perfil_cn|O
file.mx_perfil_cn_fechamento|d|s3://natura-datalake-dev/raw/mx_perfil_cn_fechamento/|raw|mx_perfil_cn_fechamento|O
file.mx_pessoa|d|s3://natura-datalake-dev/raw/mx_pessoa/|raw|mx_pessoa|O
file.mx_pessoa_comercial|d|s3://natura-datalake-dev/raw/mx_pessoa_comercial/|raw|mx_pessoa_comercial|O
file.mx_produto|d|s3://natura-datalake-dev/raw/mx_produto/|raw|mx_produto|O
file.mx_produto_estrutura|d|s3://natura-datalake-dev/raw/mx_produto_estrutura/|raw|mx_produto_estrutura|O
file.mx_situacao_atendimento_sac|d|s3://natura-datalake-dev/raw/mx_situacao_atendimento_sac/|raw|mx_situacao_atendimento_sac|O
file.mx_subciclo_operacional|d|s3://natura-datalake-dev/raw/mx_subciclo_operacional/|raw|mx_subciclo_operacional|O
file.mx_tipo_atendimento_sac|d|s3://natura-datalake-dev/raw/mx_tipo_atendimento_sac/|raw|mx_tipo_atendimento_sac|O
file.mx_transportadora|d|s3://natura-datalake-dev/raw/mx_transportadora/|raw|mx_transportadora|O
file.pe_abrangencia|d|s3://natura-datalake-dev/raw/pe_abrangencia/|raw|pe_abrangencia|O
file.pe_centro_estoque|d|s3://natura-datalake-dev/raw/pe_centro_estoque/|raw|pe_centro_estoque|O
file.pe_ciclo_operacional|d|s3://natura-datalake-dev/raw/pe_ciclo_operacional/|raw|pe_ciclo_operacional|O
file.pe_classificacao_produto|d|s3://natura-datalake-dev/raw/pe_classificacao_produto/|raw|pe_classificacao_produto|O
file.pe_dominio|d|s3://natura-datalake-dev/raw/pe_dominio/|raw|pe_dominio|O
file.pe_estrutura_comercial|d|s3://natura-datalake-dev/raw/pe_estrutura_comercial/|raw|pe_estrutura_comercial|O
file.pe_estrutura_geo|d|s3://natura-datalake-dev/raw/pe_estrutura_geo/|raw|pe_estrutura_geo|O
file.pe_estrutura_produto|d|s3://natura-datalake-dev/raw/pe_estrutura_produto/|raw|pe_estrutura_produto|O
file.pe_fatura|d|s3://natura-datalake-dev/raw/pe_fatura/|raw|pe_fatura|O
file.pe_indicadores_cno|d|s3://natura-datalake-dev/raw/pe_indicadores_cno/|raw|pe_indicadores_cno|O
file.pe_indicadores_cno_fechamento|d|s3://natura-datalake-dev/raw/pe_indicadores_cno_fechamento/|raw|pe_indicadores_cno_fechamento|O
file.pe_item_pedido|d|s3://natura-datalake-dev/raw/pe_item_pedido/|raw|pe_item_pedido|O
file.pe_notificacao_cn|d|s3://natura-datalake-dev/raw/pe_notificacao_cn/|raw|pe_notificacao_cn|O
file.pe_ordenes_de_pago_cno|d|s3://natura-datalake-dev/raw/pe_ordenes_de_pago_cno/|raw|pe_ordenes_de_pago_cno|O
file.pe_pedido|d|s3://natura-datalake-dev/raw/pe_pedido/|raw|pe_pedido|O
file.pe_perfil_cn|d|s3://natura-datalake-dev/raw/pe_perfil_cn/|raw|pe_perfil_cn|O
file.pe_perfil_cn_fechamento|d|s3://natura-datalake-dev/raw/pe_perfil_cn_fechamento/|raw|pe_perfil_cn_fechamento|O
file.pe_pessoa|d|s3://natura-datalake-dev/raw/pe_pessoa/|raw|pe_pessoa|O
file.pe_pessoa_comercial|d|s3://natura-datalake-dev/raw/pe_pessoa_comercial/|raw|pe_pessoa_comercial|O
file.pe_produto|d|s3://natura-datalake-dev/raw/pe_produto/|raw|pe_produto|O
file.pe_produto_estrutura|d|s3://natura-datalake-dev/raw/pe_produto_estrutura/|raw|pe_produto_estrutura|O
file.pe_situacao_atendimento_sac|d|s3://natura-datalake-dev/raw/pe_situacao_atendimento_sac/|raw|pe_situacao_atendimento_sac|O
file.pe_subciclo_operacional|d|s3://natura-datalake-dev/raw/pe_subciclo_operacional/|raw|pe_subciclo_operacional|O
file.pe_tipo_atendimento_sac|d|s3://natura-datalake-dev/raw/pe_tipo_atendimento_sac/|raw|pe_tipo_atendimento_sac|O
file.pe_transportadora|d|s3://natura-datalake-dev/raw/pe_transportadora/|raw|pe_transportadora|O
domains.address_place_type|d|s3://natura-datalake-dev/raw/address_place_type/|raw|address_place_type|O
domains.address_type|d|s3://natura-datalake-dev/raw/address_type/|raw|address_type|O
domains.address_usage|d|s3://natura-datalake-dev/raw/address_usage/|raw|address_usage|O
domains.block_reason|d|s3://natura-datalake-dev/raw/block_reason/|raw|block_reason|O
domains.business_model|d|s3://natura-datalake-dev/raw/business_model/|raw|business_model|O
domains.communication_category|d|s3://natura-datalake-dev/raw/communication_category/|raw|communication_category|O
domains.company|d|s3://natura-datalake-dev/raw/company/|raw|company|O
domains.credit_line_status|d|s3://natura-datalake-dev/raw/credit_line_status/|raw|credit_line_status|O
domains.document_attachment_type|d|s3://natura-datalake-dev/raw/document_attachment_type/|raw|document_attachment_type|O
domains.document_type|d|s3://natura-datalake-dev/raw/document_type/|raw|document_type|O
domains.domain|d|s3://natura-datalake-dev/raw/domain/|raw|domain|O
domains.education_level|d|s3://natura-datalake-dev/raw/education_level/|raw|education_level|O
domains.establishments|d|s3://natura-datalake-dev/raw/establishments/|raw|establishments|O
domains.function|d|s3://natura-datalake-dev/raw/function/|raw|function|O
domains.gender|d|s3://natura-datalake-dev/raw/gender/|raw|gender|O
domains.group_domain|d|s3://natura-datalake-dev/raw/group_domain/|raw|group_domain|O
domains.marital_status|d|s3://natura-datalake-dev/raw/marital_status/|raw|marital_status|O
domains.nationality|d|s3://natura-datalake-dev/raw/nationality/|raw|nationality|O
domains.occupation|d|s3://natura-datalake-dev/raw/occupation/|raw|occupation|O
domains.person_substatus|d|s3://natura-datalake-dev/raw/person_substatus/|raw|person_substatus|O
domains.products|d|s3://natura-datalake-dev/raw/products/|raw|products|O
domains.products_verifications|d|s3://natura-datalake-dev/raw/products_verifications/|raw|products_verifications|O
domains.quit_reason|d|s3://natura-datalake-dev/raw/quit_reason/|raw|quit_reason|O
domains.rejection_reason|d|s3://natura-datalake-dev/raw/rejection_reason/|raw|rejection_reason|O
domains.roles|d|s3://natura-datalake-dev/raw/roles/|raw|roles|O
domains.roles_function|d|s3://natura-datalake-dev/raw/roles_function/|raw|roles_function|O
domains.sales_hierarchy_level|d|s3://natura-datalake-dev/raw/sales_hierarchy_level/|raw|sales_hierarchy_level|O
domains.social_comunication|d|s3://natura-datalake-dev/raw/social_comunication/|raw|social_comunication|O
domains.state|d|s3://natura-datalake-dev/raw/state/|raw|state|O
domains.status_substatus|d|s3://natura-datalake-dev/raw/status_substatus/|raw|status_substatus|O
domains.telephone_type|d|s3://natura-datalake-dev/raw/telephone_type/|raw|telephone_type|O
domains.type_email|d|s3://natura-datalake-dev/raw/type_email/|raw|type_email|O
domains.verifications|d|s3://natura-datalake-dev/raw/verifications/|raw|verifications|O
domains.workflow_status|d|s3://natura-datalake-dev/raw/workflow_status/|raw|workflow_status|O
domains.workflow_subtype|d|s3://natura-datalake-dev/raw/workflow_subtype/|raw|workflow_subtype|O
domains.workflow_type|d|s3://natura-datalake-dev/raw/workflow_type/|raw|workflow_type|O
people.additional_information|d|s3://natura-datalake-dev/raw/additional_information/|raw|additional_information|O
people.address|d|s3://natura-datalake-dev/raw/address/|raw|address|O
people.address_geographic_levels|d|s3://natura-datalake-dev/raw/address_geographic_levels/|raw|address_geographic_levels|O
people.approved_candidate|d|s3://natura-datalake-dev/raw/approved_candidate/|raw|approved_candidate|O
people.approved_candidate_hist|d|s3://natura-datalake-dev/raw/approved_candidate_hist/|raw|approved_candidate_hist|O
people.business_associate|d|s3://natura-datalake-dev/raw/business_associate/|raw|business_associate|O
people.business_associate_function|d|s3://natura-datalake-dev/raw/business_associate_function/|raw|business_associate_function|O
people.contact_reference|d|s3://natura-datalake-dev/raw/contact_reference/|raw|contact_reference|O
people.document|d|s3://natura-datalake-dev/raw/document/|raw|document|O
people.document_attachment|d|s3://natura-datalake-dev/raw/document_attachment/|raw|document_attachment|O
people.document_extra_information|d|s3://natura-datalake-dev/raw/document_extra_information/|raw|document_extra_information|O
people.email|d|s3://natura-datalake-dev/raw/email/|raw|email|O
people.log_job_caduni|d|s3://natura-datalake-dev/raw/log_job_caduni/|raw|log_job_caduni|O
people.person|d|s3://natura-datalake-dev/raw/person/|raw|person|O
people.person_companies|d|s3://natura-datalake-dev/raw/person_companies/|raw|person_companies|O
people.person_roles|d|s3://natura-datalake-dev/raw/person_roles/|raw|person_roles|O
people.person_roles_function|d|s3://natura-datalake-dev/raw/person_roles_function/|raw|person_roles_function|O
people.person_verifications|d|s3://natura-datalake-dev/raw/person_verifications/|raw|person_verifications|O
people.policies_accepts|d|s3://natura-datalake-dev/raw/policies_accepts/|raw|policies_accepts|O
people.recommended_sales_hierarchy|d|s3://natura-datalake-dev/raw/recommended_sales_hierarchy/|raw|recommended_sales_hierarchy|O
people.reviews|d|s3://natura-datalake-dev/raw/reviews/|raw|reviews|O
people.telephone|d|s3://natura-datalake-dev/raw/telephone/|raw|telephone|O
siscnt.pre_lista_setor|d|s3://natura-datalake-dev/raw/pre_lista_setor/|raw|pre_lista_setor|O
siscnt.item_pre_pedido|d|s3://natura-datalake-dev/raw/item_pre_pedido/|raw|item_pre_pedido|O
siscnt.pre_periodo_processo_gv|d|s3://natura-datalake-dev/raw/pre_periodo_processo_gv/|raw|pre_periodo_processo_gv|O
siscnt.pre_consultor_restricoes|d|s3://natura-datalake-dev/raw/pre_consultor_restricoes/|raw|pre_consultor_restricoes|O
siscnt.pre_processo|d|s3://natura-datalake-dev/raw/pre_processo/|raw|pre_processo|O
siscnt.pre_evento|d|s3://natura-datalake-dev/raw/pre_evento/|raw|pre_evento|O
siscnt.pre_log_detalhe_proc_robo|d|s3://natura-datalake-dev/raw/pre_log_detalhe_proc_robo/|raw|pre_log_detalhe_proc_robo|O
siscnt.lista_presente|d|s3://natura-datalake-dev/raw/lista_presente/|raw|lista_presente|O
siscnt.lista_presente_abrangencia|d|s3://natura-datalake-dev/raw/lista_presente_abrangencia/|raw|lista_presente_abrangencia|O
siscnt.lista_presente_item|d|s3://natura-datalake-dev/raw/lista_presente_item/|raw|lista_presente_item|O
brm.brm_person|d|s3://natura-datalake-dev/raw/brm_person/|raw|brm_person|O
cmm.operational_cycle|d|s3://natura-datalake-dev/raw/operational_cycle/|raw|operational_cycle|O
brm.business_relation|d|s3://natura-datalake-dev/raw/business_relation/|raw|business_relation|O
cmm.geo_structures|d|s3://natura-datalake-dev/raw/geo_structures/|raw|geo_structures|O
siscad.t_ps_papel_pessoa|d|s3://natura-datalake-dev/raw/t_ps_papel_pessoa/|raw|t_ps_papel_pessoa|O
siscad.t_pessoa_relacao_comercial|d|s3://natura-datalake-dev/raw/t_pessoa_relacao_comercial/|raw|t_pessoa_relacao_comercial|O
siscad.t_ps_restricao_revenda|d|s3://natura-datalake-dev/raw/t_ps_restricao_revenda/|raw|t_ps_restricao_revenda|O
siscad.t_documento_pessoa|d|s3://natura-datalake-dev/raw/t_documento_pessoa/|raw|t_documento_pessoa|O
siscad.t_ps_intencao_revenda|d|s3://natura-datalake-dev/raw/t_ps_intencao_revenda/|raw|t_ps_intencao_revenda|O
siscad.t_ps_tipo_restricao|d|s3://natura-datalake-dev/raw/t_ps_tipo_restricao/|raw|t_ps_tipo_restricao|O
sisdmpm.t_prj_intgr_f_mbredenat|d|s3://natura-datalake-dev/raw/t_prj_intgr_f_mbredenat/|raw|t_prj_intgr_f_mbredenat|O
sissa.t_sa_mb_presencial|d|s3://natura-datalake-dev/raw/sissa_t_sa_mb_presencial/|raw|sissa_t_sa_mb_presencial|O
siscpt.item_pedido_nao_atendido|d|s3://natura-datalake-dev/raw/item_pedido_nao_atendido/|raw|item_pedido_nao_atendido|O
gsp.orders|d|s3://natura-datalake-dev/raw/gsp_orders/|raw|gsp_orders|O
gsp.availability_availability_ina|d|s3://natura-datalake-dev/raw/gsp_availability_ina/|raw|gsp_availability_ina|O
gsp.availability_quota_consumption|d|s3://natura-datalake-dev/raw/gsp_availability_quota_consumption/|raw|gsp_availability_quota_consumption|O
sisdmpm.t_dw_d_forma_pagamento|d|s3://natura-datalake-dev/raw/t_dw_d_forma_pagamento/|raw|t_dw_d_forma_pagamento|O
gsp.products_unavailability|d|s3://natura-datalake-dev/raw/gsp_products_unavailability/|raw|gsp_products_unavailability|O
sisdmpm.t_prj_intgr_f_material|d|s3://natura-datalake-dev/raw/t_prj_intgr_f_material/|raw|t_prj_intgr_f_material|O
public.historical_event_types|d|s3://natura-datalake-dev/raw/historical_event_types/|raw|historical_event_types|O
public.hist_workbooks|d|s3://natura-datalake-dev/raw/hist_workbooks/|raw|hist_workbooks|O
public.hist_views|d|s3://natura-datalake-dev/raw/hist_views/|raw|hist_views|O
public.hist_users|d|s3://natura-datalake-dev/raw/hist_users/|raw|hist_users|O
public.hist_projects|d|s3://natura-datalake-dev/raw/hist_projects/|raw|hist_projects|O
public.hist_datasources|d|s3://natura-datalake-dev/raw/hist_datasources/|raw|hist_datasources|O
public.hist_comments|d|s3://natura-datalake-dev/raw/hist_comments/|raw|hist_comments|O
public.licensing_roles|d|s3://natura-datalake-dev/raw/licensing_roles/|raw|licensing_roles|O
public.system_users|d|s3://natura-datalake-dev/raw/system_users/|raw|system_users|O
public.historical_events|d|s3://natura-datalake-dev/raw/historical_events/|raw|historical_events|O
public.users|d|s3://natura-datalake-dev/raw/users/|raw|users|O
public.projects|d|s3://natura-datalake-dev/raw/projects/|raw|projects|O
public.views|d|s3://natura-datalake-dev/raw/views/|raw|views|O
public.workbooks|d|s3://natura-datalake-dev/raw/workbooks/|raw|workbooks|O
sisdmpm.t_prj_intgr_f_mbpresenc|d|s3://natura-datalake-dev/raw/t_prj_intgr_f_mbpresenc/|raw|t_prj_intgr_f_mbpresenc|O
people.person_data_status|d|s3://natura-datalake-dev/raw/person_data_status/|raw|person_data_status|O
sispi.t_tabela_preco|d|s3://natura-datalake-dev/raw/t_tabela_preco/|raw|t_tabela_preco|O
sispi.t_agrupamento_tabela_preco|d|s3://natura-datalake-dev/raw/t_agrupamento_tabela_preco/|raw|t_agrupamento_tabela_preco|O
siscpt.dominio|d|s3://natura-datalake-dev/raw/dominio/|raw|dominio|O
siscpt.t_oferta_troca_produto|d|s3://natura-datalake-dev/raw/t_oferta_troca_produto/|raw|t_oferta_troca_produto|O
siscpt.efetividade_oferta_substituto|d|s3://natura-datalake-dev/raw/efetividade_oferta_substituto/|raw|efetividade_oferta_substituto|O
siscpt.vale_ponto_pendente|d|s3://natura-datalake-dev/raw/vale_ponto_pendente/|raw|vale_ponto_pendente|O
siscpt.vale_ponto_processado|d|s3://natura-datalake-dev/raw/vale_ponto_processado/|raw|vale_ponto_processado|O
sispi.t_pi_preco_cn|d|s3://natura-datalake-dev/raw/t_pi_preco_cn/|raw|t_pi_preco_cn|O
sisgcp.t_pi_preco_cn|d|s3://natura-datalake-dev/raw/t_pi_preco_cn/|raw|t_pi_preco_cn|O
siscpt.relatorio_ina_detalhado|d|s3://natura-datalake-dev/raw/relatorio_ina_detalhado/|raw|relatorio_ina_detalhado|O
master_data.country|d|s3://natura-datalake-dev/raw/country/|raw|country|O
166746088.t_dbm_master_pedido|d|s3://natura-datalake-dev/raw/t_dbm_master_pedido/|raw|t_dbm_master_pedido|O
siscpt.cg_resgate|d|s3://natura-datalake-dev/raw/cg_resgate/|raw|cg_resgate|O
siscpt.cg_reserva|d|s3://natura-datalake-dev/raw/cg_reserva/|raw|cg_reserva|O
siscpt.meio_pagamento_captacao|d|s3://natura-datalake-dev/raw/meio_pagamento_captacao/|raw|meio_pagamento_captacao|O
sisdmpm.t_dw_d_dominio_dados_compl_mdm|d|s3://natura-datalake-dev/raw/t_dw_d_dominio_dados_compl_mdm/|raw|t_dw_d_dominio_dados_compl_mdm|O
sisdmpm.t_dw_d_pessoa_mdm|d|s3://natura-datalake-dev/raw/t_dw_d_pessoa_mdm/|raw|t_dw_d_pessoa_mdm|O
sisdmpm.t_dw_f_dados_complementares|d|s3://natura-datalake-dev/raw/t_dw_f_dados_complementares/|raw|t_dw_f_dados_complementares|O
sisdmpm.cnd_atg|d|s3://natura-datalake-dev/raw/cnd_atg/|raw|cnd_atg|O
sisdmi.t_dw_d_pedido|d|s3://natura-datalake-dev/raw/t_dw_d_pedido/|raw|t_dw_d_pedido|O
sisdmpm.t_bw_item_vendas|d|s3://natura-datalake-dev/raw/t_bw_item_vendas/|raw|t_bw_item_vendas|O
sisdmpm.t_consultora|d|s3://natura-datalake-dev/raw/t_consultora/|raw|t_consultora|O
sisdmpm.sisdmpm_t_consultora|d|s3://natura-datalake-dev/raw/sisdmpm_t_consultora/|raw|sisdmpm_t_consultora|O
atgdb_natura_core.nt_cf_user|d|s3://natura-datalake-dev/raw/nt_cf_user/|raw|nt_cf_user|O
atgdb_natura_core.dps_contact_info|d|s3://natura-datalake-dev/raw/dps_contact_info/|raw|dps_contact_info|O
atgdb_natura_core.nt_contact_info|d|s3://natura-datalake-dev/raw/nt_contact_info/|raw|nt_contact_info|O
atgdb_natura_core.nt_cf_cn|d|s3://natura-datalake-dev/raw/nt_cf_cn/|raw|nt_cf_cn|O
stage.customer360_tbdcvuc_documento|d|s3://natura-datalake-dev/raw/customer360_tbdcvuc_documento/|raw|customer360_tbdcvuc_documento|O
stage.customer360_tbdcvuc_papel_pessoa|d|s3://natura-datalake-dev/raw/customer360_tbdcvuc_papel_pessoa/|raw|customer360_tbdcvuc_papel_pessoa|O
stage.customer360_tbdcvuc_pessoa_fisica|d|s3://natura-datalake-dev/raw/customer360_tbdcvuc_pessoa_fisica/|raw|customer360_tbdcvuc_pessoa_fisica|O
stage.customer360_tbdcvuc_papel_pessoa_origem|d|s3://natura-datalake-dev/raw/customer360_tbdcvuc_papel_pessoa_origem/|raw|customer360_tbdcvuc_papel_pessoa_origem|O
stage.customer360_tbdcvuc_papel_pessoa_funcao|d|s3://natura-datalake-dev/raw/customer360_tbdcvuc_papel_pessoa_funcao/|raw|customer360_tbdcvuc_papel_pessoa_funcao|O
stage.customer360_tbdcvuc_telefone|d|s3://natura-datalake-dev/raw/customer360_tbdcvuc_telefone/|raw|customer360_tbdcvuc_telefone|O
stage.customer360_tbdcvuc_papel_uso_endereco|d|s3://natura-datalake-dev/raw/customer360_tbdcvuc_papel_uso_endereco/|raw|customer360_tbdcvuc_papel_uso_endereco|O
stage.customer360_tbdcvuc_papel_uso_email|d|s3://natura-datalake-dev/raw/customer360_tbdcvuc_papel_uso_email/|raw|customer360_tbdcvuc_papel_uso_email|O
stage.customer360_tbdcvuc_endereco|d|s3://natura-datalake-dev/raw/customer360_tbdcvuc_endereco/|raw|customer360_tbdcvuc_endereco|O
stage.customer360_tbdcvuc_email|d|s3://natura-datalake-dev/raw/customer360_tbdcvuc_email/|raw|customer360_tbdcvuc_email|O
stage.customer360_tbdcvuc_pessoa_midia_social|d|s3://natura-datalake-dev/raw/customer360_tbdcvuc_pessoa_midia_social/|raw|customer360_tbdcvuc_pessoa_midia_social|O
stage.customer360_tbdcvuc_lead_prospects|d|s3://natura-datalake-dev/raw/customer360_tbdcvuc_lead_prospects/|raw|customer360_tbdcvuc_lead_prospects|O
stage.customer360_tbdcvuc_papel_uso_telefone|d|s3://natura-datalake-dev/raw/customer360_tbdcvuc_papel_uso_telefone/|raw|customer360_tbdcvuc_papel_uso_telefone|O
atgdb_natura_core.nt_cf_user|d|s3://natura-datalake-dev/raw/nt_cf_user/|raw|nt_cf_user|O
sisdmi.sisdmi_t_dw_d_produto|d|s3://natura-datalake-dev/raw/sisdmi_t_dw_d_produto/|raw|sisdmi_t_dw_d_produto|O
sisdmi.sisdmi_t_dw_f_item_pedido|d|s3://natura-datalake-dev/raw/sisdmi_t_dw_f_item_pedido/|raw|sisdmi_t_dw_f_item_pedido|O
sisdmi.t_prj_2go_f_pedido|d|s3://natura-datalake-dev/raw/t_prj_2go_f_pedido/|raw|t_prj_2go_f_pedido|O
sisdmi.t_dm_f_abt_pessoa_n2go|d|s3://natura-datalake-dev/raw/t_dm_f_abt_pessoa_n2go/|raw|t_dm_f_abt_pessoa_n2go|O
sisdmi.t_prj_2go_f_pedido_item|d|s3://natura-datalake-dev/raw/t_prj_2go_f_pedido_item/|raw|t_prj_2go_f_pedido_item|O
sisdmi.sisdmi_t_dw_d_pessoa|d|s3://natura-datalake-dev/raw/sisdmi_t_dw_d_pessoa/|raw|sisdmi_t_dw_d_pessoa|O
sisdmi.t_dw_f_perfil_cn|d|s3://natura-datalake-dev/raw/t_dw_f_perfil_cn/|raw|t_dw_f_perfil_cn|O
coedados.cp2021|f|s3://natura-datalake-dev/raw/coedados_cp2021|raw|cp2021|O
atgdb_natura_core.nt_cf_cn|d|s3://natura-datalake-dev/raw/nt_cf_cn/|raw|nt_cf_cn|O
atgdb_natura_core.dps_contact_info|d|s3://natura-datalake-dev/raw/dps_contact_info/|raw|dps_contact_info|O
atgdb_natura_core.nt_contact_info|d|s3://natura-datalake-dev/raw/nt_contact_info/|raw|nt_contact_info|O
stage.customer360_tbdcvuc_pessoa|d|s3://natura-datalake-dev/raw/customer360_tbdcvuc_pessoa/|raw|customer360_tbdcvuc_pessoa|O
sissa.t_sa_cmv_plan|d|s3://natura-datalake-dev/raw/t_sa_cmv_plan/|raw|t_sa_cmv_plan|O
sisbio.t_cliente_final|d|s3://natura-datalake-dev/raw/t_cliente_final/|raw|t_cliente_final|O
sisbio.t_pedido_dados_pagamento|d|s3://natura-datalake-dev/raw/t_pedido_dados_pagamento/|raw|t_pedido_dados_pagamento|O
sisbio.t_pedido_endereco_faturamento|d|s3://natura-datalake-dev/raw/t_pedido_endereco_faturamento/|raw|t_pedido_endereco_faturamento|O
sisbio.t_cliente_final_complemento|d|s3://natura-datalake-dev/raw/t_cliente_final_complemento/|raw|t_cliente_final_complemento|O
sisbio.t_pedido_complemento|d|s3://natura-datalake-dev/raw/t_pedido_complemento/|raw|t_pedido_complemento|O
sisbio.t_dominio|d|s3://natura-datalake-dev/raw/t_dominio/|raw|t_dominio|O
